{
	"totalCount": 134,
	"currentCount": 0,
	"currentPage": 1,
	"limitCount": 10,
	"totalPage": 14,
	"sortField": null,
	"sortOrder": null,

	"data": [
		{
			"rowState": null,
			"rownum": null,
			"pmCode": "TVH",
			"ebcuNameCn": "惠州王牌BU",
			"modifyTime": null,
			"ebcuIndustryType": null,
			"ebcuTel": null,
			"ebcuFax": null,
			"ebcuAddress": null,
			"ebcuAddressDesc": null,
			"ebccContactNo": null,
			"ebccContactName": null,
			"ebccTel": null,
			"ebccFax": null,
			"ebccEmail": null,
			"eblcAddress": null
		}, {
			"rowState": null,
			"rownum": null,
			"pmCode": "TCL",
			"ebcuNameCn": "TCL集团动态",
			"modifyTime": null,
			"ebcuIndustryType": null,
			"ebcuTel": null,
			"ebcuFax": null,
			"ebcuAddress": null,
			"ebcuAddressDesc": null,
			"ebccContactNo": null,
			"ebccContactName": null,
			"ebccTel": null,
			"ebccFax": null,
			"ebccEmail": null,
			"eblcAddress": null
		}, {
			"rowState": null,
			"rownum": null,
			"pmCode": "JDF",
			"ebcuNameCn": "北京京东方",
			"modifyTime": null,
			"ebcuIndustryType": null,
			"ebcuTel": null,
			"ebcuFax": null,
			"ebcuAddress": null,
			"ebcuAddressDesc": null,
			"ebccContactNo": null,
			"ebccContactName": null,
			"ebccTel": null,
			"ebccFax": null,
			"ebccEmail": null,
			"eblcAddress": null
		}, {
			"rowState": null,
			"rownum": null,
			"pmCode": "ZM",
			"ebcuNameCn": "惠州TCL照明电器有限公司",
			"modifyTime": null,
			"ebcuIndustryType": null,
			"ebcuTel": null,
			"ebcuFax": null,
			"ebcuAddress": null,
			"ebcuAddressDesc": null,
			"ebccContactNo": null,
			"ebccContactName": null,
			"ebccTel": null,
			"ebccFax": null,
			"ebccEmail": null,
			"eblcAddress": null
		}, {
			"rowState": null,
			"rownum": null,
			"pmCode": "WHXF",
			"ebcuNameCn": "湖北幸福树智能电器销售有限公司",
			"modifyTime": null,
			"ebcuIndustryType": null,
			"ebcuTel": null,
			"ebcuFax": null,
			"ebcuAddress": null,
			"ebcuAddressDesc": null,
			"ebccContactNo": null,
			"ebccContactName": null,
			"ebccTel": null,
			"ebccFax": null,
			"ebccEmail": null,
			"eblcAddress": null
		}, {
			"rowState": null,
			"rownum": null,
			"pmCode": "XJHHY",
			"ebcuNameCn": "新疆瀚海原电器销售有限公司",
			"modifyTime": null,
			"ebcuIndustryType": null,
			"ebcuTel": null,
			"ebcuFax": null,
			"ebcuAddress": null,
			"ebcuAddressDesc": null,
			"ebccContactNo": null,
			"ebccContactName": null,
			"ebccTel": null,
			"ebccFax": null,
			"ebccEmail": null,
			"eblcAddress": null
		}, {
			"rowState": null,
			"rownum": null,
			"pmCode": "SNWL",
			"ebcuNameCn": "江苏苏宁物流有限公司",
			"modifyTime": null,
			"ebcuIndustryType": null,
			"ebcuTel": null,
			"ebcuFax": null,
			"ebcuAddress": null,
			"ebcuAddressDesc": null,
			"ebccContactNo": null,
			"ebccContactName": null,
			"ebccTel": null,
			"ebccFax": null,
			"ebccEmail": null,
			"eblcAddress": null
		}, {
			"rowState": null,
			"rownum": null,
			"pmCode": "HHSY",
			"ebcuNameCn": "深圳市和宏实业股份有限公司",
			"modifyTime": null,
			"ebcuIndustryType": null,
			"ebcuTel": null,
			"ebcuFax": null,
			"ebcuAddress": null,
			"ebcuAddressDesc": null,
			"ebccContactNo": null,
			"ebccContactName": null,
			"ebccTel": null,
			"ebccFax": null,
			"ebccEmail": null,
			"eblcAddress": null
		}, {
			"rowState": null,
			"rownum": null,
			"pmCode": "XLB",
			"ebcuNameCn": "广东新绿宝机电工程有限公司",
			"modifyTime": null,
			"ebcuIndustryType": null,
			"ebcuTel": null,
			"ebcuFax": null,
			"ebcuAddress": null,
			"ebcuAddressDesc": null,
			"ebccContactNo": null,
			"ebccContactName": null,
			"ebccTel": null,
			"ebccFax": null,
			"ebccEmail": null,
			"eblcAddress": null
		}, {
			"rowState": null,
			"rownum": null,
			"pmCode": "FUYS",
			"ebcuNameCn": "乌鲁木齐风行云商电子科技有限公司",
			"modifyTime": null,
			"ebcuIndustryType": null,
			"ebcuTel": null,
			"ebcuFax": null,
			"ebcuAddress": null,
			"ebcuAddressDesc": null,
			"ebccContactNo": null,
			"ebccContactName": null,
			"ebccTel": null,
			"ebccFax": null,
			"ebccEmail": null,
			"eblcAddress": null
		}
	]
}